{
    "data": {
        "request": [{
                    "type": "City",
                    "query": "Valladolid, Spain"
                    }],
        "current_condition": [{
                              "weatherIconUrl": [{
                                                 "value": "http://cdn.worldweatheronline.net/images/wsymbols01_png_64/wsymbol_0033_cloudy_with_light_rain_night.png"
                                                 }],
                              "weatherDesc": [{
                                              "value": "Light Drizzle"
                                              }]
                              }],
        "weather": [{
                    "date": "2017-02-28",
                    "astronomy": [],
                    "maxtempC": "12",
                    "mintempC": "6"
                    }, {
                    "date": "2017-03-01",
                    "maxtempC": "13",
                    "mintempC": "3"
                    }, {
                    "date": "2017-03-02",
                    "maxtempC": "16",
                    "mintempC": "5"
                    }, {
                    "date": "2017-03-03",
                    "maxtempC": "10",
                    "mintempC": "2"
                    }, {
                    "date": "2017-03-04",
                    "maxtempC": "8",
                    "mintempC": "0"
                    }],
        "ClimateAverages": []
    }
}
